{
  "type": "FeatureCollection",
  "features": [
    {
      "type": "Feature",
      "properties": {},
      "geometry": {
        "type": "Polygon",
        "coordinates": [
          [
            [
              -105.24490356445312,
              39.74250431287842
            ],
            [
              -105.20267486572266,
              39.74250431287842
            ],
            [
              -105.20267486572266,
              39.76823849287344
            ],
            [
              -105.24490356445312,
              39.76823849287344
            ],
            [
              -105.24490356445312,
              39.74250431287842
            ]
          ]
        ]
      }
    }
  ]
}